[start]
20160101	0	20300101	0	50700	999999	0	0	1	1	0	150	0	0	0	0	7500	0	2000	0	500	0	0	0	Some Cats only appear here! All Cats here are Rare or above.
20180109	1100	20300101	1100	50700	999999	0	0	0	1	0	0	0	0	10000	0	0	0	0	0	0	0	0	0	
20170101	0	20300101	0	50700	999999	0	0	2	2	0	30	0	0	0	0	7500	0	2000	0	500	0	0	0		0	30	0	0	0	0	7500	0	2000	0	500	0	0	0	
20170101	0	20300101	0	50700	999999	0	0	3	2	0	75	0	0	0	0	7500	0	2000	0	500	0	0	0		0	75	0	0	0	0	7500	0	2000	0	500	0	0	0	
20181013	1100	20300101	1100	70400	999999	0	0	1	4	-1	150	0	0	0	0	7500	0	2000	0	500	0	0	0		-1	150	0	0	0	0	7500	0	2000	0	500	0	0	0		-1	150	0	0	0	0	7500	0	2000	0	500	0	0	0		320	0	0	0	0	0	0	0	0	0	10000	0	0	0	Get an Uber Rare Cat!! 100% Uber drop Rate in the PLATINUM CAPSULES!
20190911	1100	20190914	1100	80800	999999	0	0	1	1	380	150	0	0	0	0	6970	0	2500	0	500	0	30	0	★ Elemental Pixies ★ Cosmic powers brought to life, with a mystery elemental!
20190914	1100	20190917	1100	80800	999999	0	0	1	1	361	150	0	0	0	0	6500	0	2600	0	900	0	0	0	D'arktanyan is here! ★ Plus higher drop rate for Uber Rares!
20190916	1100	20191002	0	80800	999999	0	0	0	4	-1	150	0	0	0	0	7500	0	2000	0	500	0	0	0		-1	150	0	0	0	0	7500	0	2000	0	500	0	0	0		-1	150	0	0	0	0	7500	0	2000	0	500	0	0	0		32	0	300	0	0	0	5100	0	3500	0	1400	0	0	0	【Limited Event】 Special chance for XP and Catamins! ★ On thru 10/1!
20190917	1100	20190920	1100	80900	999999	0	0	1	1	369	150	0	0	0	0	6970	0	2500	0	500	0	30	0	The mighty Dynamites are here! Variety and power await you!
20190920	1100	20190922	1100	80900	999999	0	0	1	1	377	150	0	0	0	0	6970	0	2500	0	500	1	30	0	Ultimate Cat artillery, with a top-secret Legend?! ★ Tap banner for info!
20190920	1100	20190925	1100	80900	999999	0	0	1	2	-1	150	0	0	0	0	7500	0	2000	0	500	0	0	0		389	150	0	0	0	0	7000	0	2500	0	500	1	0	0	Limited Uber Set, with Li'l Valkyrie! Plus 11-Draw Uber Guarantee!
20190920	1100	20191001	1100	80900	999999	0	0	0	2	-1	150	0	0	0	0	7500	0	2000	0	500	0	0	0		3	0	300	0	400	0	2000	0	7000	0	600	0	0	0	Limited Capsules ★ Collect Catfruit by drawing from this set!
20190922	1100	20190925	1100	80900	999999	0	0	1	1	362	150	0	0	0	0	6970	0	2500	0	500	1	30	0	★ Ultra Souls★ Guaranteed 11-Draw for legendary Uber Rare Cats!
20190923	1100	20191008	0	80900	999999	0	0	0	3	-1	150	0	0	0	0	7500	0	2000	0	500	0	0	0		-1	150	0	0	0	0	7500	0	2000	0	500	0	0	0		31	0	0	0	0	0	7400	0	2100	0	500	0	0	0	【Limited】 Collect Li'l Cats only during this event!★ Thru October 7th!
20190923	1100	20190925	1100	80900	999999	0	0	1	2	-1	150	0	0	0	0	7500	0	2000	0	500	0	0	0		389	150	0	3704	0	0	7000	0	2500	0	500	1	0	0	Limited Uber Set, with Li'l Valkyrie! Plus 11-Draw Uber Guarantee!
20190923	1100	20190925	1100	80900	999999	0	0	1	1	362	150	0	3704	0	0	6970	0	2500	0	500	1	30	0	★ Ultra Souls★ Guaranteed 11-Draw for legendary Uber Rare Cats!
20190925	1100	20190928	1100	80900	999999	0	0	1	1	336	150	0	3704	0	0	6970	0	2500	0	500	1	30	0	★ Dragon Emperors ★ Collect a mighty monstrous Uber Cat!
20190925	1100	20190928	1100	80900	999999	0	0	1	2	-1	150	0	0	0	0	7500	0	2000	0	500	0	0	0		251	150	0	3704	0	0	7000	0	2500	0	500	1	0	0	A limited edition Uber Set, with exclusive units! 11-Draw Uber Guarantee!
20190928	1100	20191001	1100	80900	999999	0	0	1	1	354	150	0	3704	0	0	7000	0	2500	0	500	1	0	0	★ Girls & Monsters! ★ Terrifying beauties with an 11-Draw Guarantee!
20190928	1100	20191003	1100	80900	999999	0	0	1	2	-1	150	0	0	0	0	7500	0	2000	0	500	0	0	0		388	150	0	3704	0	0	7000	0	2500	0	500	1	0	0	Exclusive Ubers including Li'l Valkyrie Dark! 11-Draw Uber Guarantee!
[end]
