[start]
20160101	0	20300101	0	50700	999999	0	0	1	1	0	150	0	0	0	0	7500	0	2000	0	500	0	0	0	여기에서만 얻을 수 있는 레어 캐릭터가 100% 출현!!
20180109	1100	20300101	1100	50700	999999	0	0	0	1	0	0	0	0	10000	0	0	0	0	0	0	0	0	0	
20170101	0	20300101	0	50700	999999	0	0	2	2	0	30	0	0	0	0	7500	0	2000	0	500	0	0	0		0	30	0	0	0	0	7500	0	2000	0	500	0	0	0	
20170101	0	20300101	0	50700	999999	0	0	3	2	0	75	0	0	0	0	7500	0	2000	0	500	0	0	0		0	75	0	0	0	0	7500	0	2000	0	500	0	0	0	
20181013	1100	20300101	1100	70400	999999	0	0	1	4	-1	150	0	0	0	0	7500	0	2000	0	500	0	0	0		-1	150	0	0	0	0	7500	0	2000	0	500	0	0	0		-1	150	0	0	0	0	7500	0	2000	0	500	0	0	0		320	0	0	0	0	0	0	0	0	0	10000	0	0	0	울트라 슈퍼 레어 캐릭터를 반드시 뽑을 수 있는 「플래티넘 뽑기」
20190610	1100	20190625	0	80501	999999	0	0	0	2	-1	150	0	0	0	0	7500	0	2000	0	500	0	0	0		26	0	0	0	0	0	7400	0	2100	0	500	0	0	0	【기간 한정】꼬맹이 고양이들을 손에 넣을 수 있는 특별 이벤트 뽑기 등장! (~6/24)
20190612	1100	20190614	1100	80501	999999	0	0	1	1	330	150	0	3624	0	0	6970	0	2500	0	500	0	30	0	★검은 적에게 강한 바사라즈! 비밀스럽게 무장하고 새롭게 참전?! ★자세한 내용은 배너를 클릭!!
20190614	1100	20190617	1100	80501	999999	0	0	1	1	361	150	0	3624	0	0	6500	0	2600	0	900	0	0	0	★한정 캐릭터 「호걸 달타냥」 참전!★울슈레 확률 지금만 초 UP★
20190616	1100	20190702	0	80501	999999	0	0	0	3	-1	150	0	0	0	0	7500	0	2000	0	500	0	0	0		-1	150	0	0	0	0	7500	0	2000	0	500	0	0	0		27	0	300	0	0	0	5100	0	3500	0	1400	0	0	0	【기간한정】고양이 드링크와 XP를 GET할 수 있는 특별 뽑기!★ 7월 1일 까지!
20190617	1100	20190619	1100	80501	999999	0	0	1	1	372	150	0	3624	0	0	6970	0	2500	0	500	0	30	0	★수수께끼 투성이인 징글 & 귀염 생명체! 시크릿 참전!?★자세한 내용은 배너를 클릭!!★
20190619	1100	20190621	1100	80600	999999	0	0	1	1	377	150	0	3624	0	0	6970	0	2500	0	500	0	30	0	★냥코 군단의 초비밀 병기! 시크릿 참전!?★자세한 내용은 배너를 클릭!!★
20190621	1100	20190624	1100	80600	999999	0	0	1	1	246	150	0	3628	0	0	7000	0	2500	0	500	0	0	0	★보너스☆UP 뽑기 개최 중!! 떠있는 적에 강한 캐릭터 대집결!  【에어 바스터즈】  등장!★
20190624	1100	20190626	1100	80600	999999	0	0	1	1	380	150	0	0	0	0	6970	0	2500	0	500	0	30	0	★우주에서 온 개성 넘치는 깜찍한 정령들!★시크릿 참전!?★자세한 내용은 배너를 클릭!!★
20190626	1100	20190710	1100	80600	999999	0	0	0	2	-1	150	0	0	0	0	7500	0	2000	0	500	0	0	0		3	0	300	0	400	0	2000	0	7000	0	600	0	0	0	☆기간 한정★개다래를 획득할 수 있는 특별 뽑기!☆
20190626	1100	20190628	1100	80600	999999	0	0	1	1	333	150	0	0	0	0	6970	0	2500	0	500	1	30	0	파워풀 & 큐트한 사이버학원 소녀전사들! 시크릿 참전!?★자세한 내용은 배너를 클릭! 
20190626	1100	20190701	1100	80600	999999	0	0	1	2	-1	150	0	0	0	0	6970	0	2500	0	500	0	30	0		389	150	0	0	0	0	7000	0	2500	0	500	1	0	0	★압도적인 파괴력을 가진 초파괴대제 【드래곤 엠퍼러스】 등장★
20190628	1100	20190701	1100	80600	999999	0	0	1	1	336	150	0	0	0	0	6970	0	2500	0	500	1	30	0	★압도적인 파괴력을 가진 초파괴대제 【드래곤 엠퍼러스】 등장★
[end]
