[start]
20160101	0	20300101	0	50700	999999	0	0	1	1	0	150	0	0	0	0	7500	0	2000	0	500	0	0	0	여기에서만 얻을 수 있는 레어 캐릭터가 100% 출현!!
20180109	1100	20300101	1100	50700	999999	0	0	0	1	0	0	0	0	10000	0	0	0	0	0	0	0	0	0	
20170101	0	20300101	0	50700	999999	0	0	2	2	0	30	0	0	0	0	7500	0	2000	0	500	0	0	0		0	30	0	0	0	0	7500	0	2000	0	500	0	0	0	
20170101	0	20300101	0	50700	999999	0	0	3	2	0	75	0	0	0	0	7500	0	2000	0	500	0	0	0		0	75	0	0	0	0	7500	0	2000	0	500	0	0	0	
20191223	1100	20300101	1100	90100	999999	0	0	1	4	-1	0	0	0	0	0	0	0	0	0	0	0	0	0		-1	0	0	0	0	0	0	0	0	0	0	0	0	0		-1	0	0	0	0	0	0	0	0	0	0	0	0	0		471	0	0	0	0	0	0	0	0	0	10000	0	0	0	울트라 슈퍼 레어 캐릭터를 반드시 뽑을 수 있는 「플래티넘 뽑기」
20191226	1100	20200110	0	90100	999999	0	0	0	3	-1	0	0	0	0	0	0	0	0	0	0	0	0	0		-1	0	0	0	0	0	0	0	0	0	0	0	0	0		39	0	0	0	0	0	7400	0	2100	0	500	0	0	0	【기간 한정】꼬맹이 고양이들을 손에 넣을 수 있는 특별 이벤트 뽑기 등장! (~1/9)
20200101	0	20200109	1100	90100	999999	0	0	0	2	-1	0	0	0	0	0	0	0	0	0	0	0	0	0		5	0	0	2	500	0	7000	0	2000	0	500	0	0	0	☆기간 한정★높은 확률로 캣츠아이를 획득할 수 있는 특별 뽑기!☆
20200104	1100	20200109	1100	90100	999999	0	0	1	1	474	150	0	3832	0	0	6970	0	2500	0	500	1	30	0	새해 특별 뽑기! 기간 한정 캐릭터도 등장! ★11연속 뽑기 울슈레 확정!
20200106	1100	20200109	1100	90100	999999	0	0	1	2	-1	0	0	0	0	0	0	0	0	0	0	0	0	0		448	150	0	3832	0	0	6970	0	2500	0	500	1	30	0	★우주에서 온 개성 넘치는 깜찍한 정령들!★시크릿 참전!?★자세한 내용은 배너를 클릭!!★
20200109	1100	20200111	1100	90100	999999	0	0	1	1	433	150	0	0	0	0	6970	0	2500	0	500	0	30	0	★각룡 그라디오스 참전! 압도적인 존재감 뿜뿜인 드래곤들! 자세한 내용은 배너를 클릭!★
20200111	1100	20200114	1100	90100	999999	0	0	1	1	475	150	0	0	0	0	6970	0	2500	0	500	1	30	0	긴타로 참전!★냥코 월드 최대급 진화★자세한 내용은 배너를 클릭!★
20200111	1100	20300101	1100	90100	999999	0	0	1	4	-1	0	0	0	0	0	0	0	0	0	0	0	0	0		-1	0	0	0	0	0	0	0	0	0	0	0	0	0		-1	0	0	0	0	0	0	0	0	0	0	0	0	0		480	0	0	0	0	0	0	0	0	0	10000	0	0	0	울트라 슈퍼 레어 캐릭터를 반드시 뽑을 수 있는 「플래티넘 뽑기」
20200114	1100	20200117	1100	90100	999999	0	0	1	1	442	150	0	0	0	0	6970	0	2500	0	500	0	30	0	★냥코 월드에 위대한 신들이 집결!!★시크릿 참전!?★자세한 내용은 배너를 클릭!!★
20200116	1100	20200202	0	90100	999999	0	0	0	4	-1	0	0	0	0	0	0	0	0	0	0	0	0	0		-1	0	0	0	0	0	0	0	0	0	0	0	0	0		-1	0	0	0	0	0	0	0	0	0	0	0	0	0		37	0	300	0	0	0	5100	0	3500	0	1400	0	0	0	【기간한정】고양이 드링크와 XP를 GET할 수 있는 특별 뽑기!★ 2월 1일 까지!
20200117	1100	20200120	1100	90100	999999	0	0	1	1	479	150	0	0	0	0	6500	0	2600	0	900	0	0	0	★한정 캐릭터  「호걸 달타냥」  참전!★울슈레 확률 지금만 초 UP★
20200120	1100	20200123	1100	90100	999999	0	0	1	1	439	150	0	0	0	0	6970	0	2500	0	500	0	30	0	★정의와 어둠 두 가지 능력을 가진 구세주! 시크릿 참전!?★자세한 내용은 배너를 클릭!!★
[end]
