[start]
20180109	1100	20300101	1100	50700	999999	0	0	0	1	0	0	0	0	10000	0	0	0	0	0	0	0	0	0	
20170101	0	20300101	0	80200	999999	0	0	2	3	0	30	0	0	0	0	7500	0	2000	0	500	0	0	0		0	30	0	0	0	0	7500	0	2000	0	500	0	0	0		0	30	0	0	0	0	7500	0	2000	0	500	0	0	0	
20170101	0	20300101	0	80200	999999	0	0	3	3	0	75	0	0	0	0	7500	0	2000	0	500	0	0	0		0	75	0	0	0	0	7500	0	2000	0	500	0	0	0		0	75	0	0	0	0	7500	0	2000	0	500	0	0	0	
20210503	1100	20300101	0	100400	999999	0	0	0	3	-1	0	0	0	0	0	0	0	0	0	0	0	0	0		-1	0	0	0	0	0	0	0	0	0	0	0	0	0		62	0	0	0	0	0	7400	0	2100	0	500	0	0	0	【기간한정】 꼬맹이 고양이들을 손에 넣을 수 있는 특별 이벤트 뽑기 등장!
20210416	1100	20300101	0	100400	999999	0	0	0	4	-1	0	0	0	0	0	0	0	0	0	0	0	0	0		-1	0	0	0	0	0	0	0	0	0	0	0	0	0		-1	0	0	0	0	0	0	0	0	0	0	0	0	0		63	0	300	0	0	0	5100	0	3500	0	1400	0	0	0	【기간한정】 고양이 드링크와 XP를 GET할 수 있는 특별 뽑기!
20220106	1100	20300101	1100	110100	999999	0	0	0	1	64	0	2300	0	10000	0	0	0	0	0	0	0	0	0	
20220527	1100	20300101	1100	110400	999999	0	0	1	4	-1	0	0	0	0	0	0	0	0	0	0	0	0	0		-1	0	0	0	0	0	0	0	0	0	0	0	0	0		-1	0	0	0	0	0	0	0	0	0	0	0	0	0		723	0	0	0	0	0	0	0	0	0	9500	0	500	0	울슈레 이상 캐릭터 반드시 1개이상 확정 획득 가능! ★레전드 뽑기★
20220527	1100	20300101	1100	110400	999999	0	0	1	5	-1	0	0	0	0	0	0	0	0	0	0	0	0	0		-1	0	0	0	0	0	0	0	0	0	0	0	0	0		-1	0	0	0	0	0	0	0	0	0	0	0	0	0		-1	0	0	0	0	0	0	0	0	0	0	0	0	0		722	0	0	0	0	0	0	0	0	0	10000	0	0	0	울트라 슈퍼 레어 캐릭터 100% 획득 가능! ★플래티넘 뽑기★
20220620	1100	20220622	1100	110500	999999	0	0	1	1	632	150	0	16384	0	0	6970	0	2500	0	500	0	30	0	빨간 적과 악마 속성에 강한 캐릭터 '사룡 헤비저크' 참전!★자세한 내용은 배너를 클릭!!★
20220622	1100	20220624	1100	110500	999999	0	0	1	1	679	150	0	16384	0	0	6970	0	2500	0	500	0	30	0	떠있는 적과 악마에 강한 캐릭터 '타락 천신 루시퍼' 참전!★자세한 내용은 배너를 클릭!
20220624	1100	20220701	000	110600	999999	0	0	0	2	-1	0	0	0	0	0	0	0	0	0	0	0	0	0		5	0	0	2	500	0	7000	0	2000	0	500	0	0	0	☆기간 한정★높은 확률로 캣츠아이를 획득할 수 있는 특별 뽑기!☆
20220624	1100	20220627	1100	110600	999999	0	0	1	1	666	150	0	0	0	0	7000	0	2500	0	500	0	0	0	신 캐릭터가 다수 추가된 8주년 기념 특별 뽑기!★자세한 내용은 배너를 클릭!
20220627	1100	20220701	1100	110600	999999	0	0	1	1	737	150	0	0	0	0	6970	0	2500	0	500	0	30	0	감사의 마음을 담은 특별 셀렉션 뽑기!★자세한 내용은 배너를 클릭!
20220624	1100	20220626	1100	110600	999999	0	0	1	2	-1	0	0	0	0	0	0	0	0	0	0	0	0	0		626	150	0	16384	0	0	6970	0	2500	0	500	0	30	0	베리어도 쉴드도 파괴하는 캐릭터  '오코루가' 참전!★자세한 내용은 배너를 클릭!!
20220626	1100	20220628	1100	110600	999999	0	0	1	2	-1	0	0	0	0	0	0	0	0	0	0	0	0	0		719	150	0	16384	0	0	6970	0	2500	0	500	0	30	0	초생명체 특효를 가진 캐릭터 '얼음의 정령 블리즈' 참전!★자세한 내용은 배너를 클릭!
20220628	1100	20220701	1100	110600	999999	0	0	1	2	-1	0	0	0	0	0	0	0	0	0	0	0	0	0		645	150	0	16384	0	0	6970	0	2500	0	500	0	30	0	좀비와 악마에 강한 캐릭터 '초용전기 데스 트로이' 참전!★자세한 내용은 배너를 클릭!
[end]
