[start]
20180109	1100	20300101	1100	50700	999999	0	0	0	1	0	0	0	0	10000	0	0	0	0	0	0	0	0	0	
20160101	0	20300101	0	50700	999999	0	0	1	1	0	150	0	0	0	0	7500	0	2000	0	500	0	0	0	只有從這個轉蛋才能拿到的限定角色等著你喔！
20170101	0	20300101	0	80200	999999	0	0	2	3	0	30	0	0	0	0	7500	0	2000	0	500	0	0	0		0	30	0	0	0	0	7500	0	2000	0	500	0	0	0		0	30	0	0	0	0	7500	0	2000	0	500	0	0	0	
20170101	0	20300101	0	80200	999999	0	0	3	3	0	75	0	0	0	0	7500	0	2000	0	500	0	0	0		0	75	0	0	0	0	7500	0	2000	0	500	0	0	0		0	75	0	0	0	0	7500	0	2000	0	500	0	0	0	
20200807	1100	20300101	1100	90700	999999	0	0	1	4	-1	0	0	0	0	0	0	0	0	0	0	0	0	0		-1	0	0	0	0	0	0	0	0	0	0	0	0	0		-1	0	0	0	0	0	0	0	0	0	0	0	0	0		522	0	0	0	0	0	0	0	0	0	10000	0	0	0	必出超激稀有角色的白金轉蛋！快來獲得心儀的貓咪吧！
20200816	1100	20200902	0	90700	999999	0	0	0	4	-1	0	0	0	0	0	0	0	0	0	0	0	0	0		-1	0	0	0	0	0	0	0	0	0	0	0	0	0		-1	0	0	0	0	0	0	0	0	0	0	0	0	0		48	0	300	0	0	0	5100	0	3500	0	1400	0	0	0	限時開放★能夠獲得喵力達與XP的特別轉蛋！★9月1日為止！
20200824	1100	20200828	1100	90800	999999	0	0	0	3	-1	0	0	0	0	0	0	0	0	0	0	0	0	0		-1	0	0	0	0	0	0	0	0	0	0	0	0	0		3	0	300	0	400	0	2000	0	7000	0	600	0	0	0	限時開放★有機會入手貓薄荷的活動限定特別轉蛋！
20200824	1100	20200901	0	90800	999999	0	0	0	2	-1	0	0	0	0	0	0	0	0	0	0	0	0	0		49	0	0	0	0	0	7400	0	2100	0	500	0	0	0	限時開放！收集小小貓咪的好機會！★開放到2020年8月31日！
20200824	1100	20200831	1100	90800	999999	0	0	1	1	534	150	0	3992	0	0	7000	0	2500	0	500	0	0	0	新角色追加！滿滿開放感的夏日限定角色來GET吧！★點圖確認詳細吧！！
20200824	1100	20200826	1100	90800	999999	0	0	1	2	-1	0	0	0	0	0	0	0	0	0	0	0	0	0		487	150	0	3992	0	0	6970	0	2500	0	500	0	30	0	狙擊天才沙紀參戰！握有正義與黑暗之力的救世主們！★點圖確認詳細吧！！
20200826	1100	20200828	1100	90800	999999	0	0	1	2	-1	0	0	0	0	0	0	0	0	0	0	0	0	0		424	150	0	3992	0	0	6970	0	2500	0	500	0	30	0	豐富多樣性的世界第一即戰力貓咪們！★點圖確認詳細吧!!
20200828	1100	20200831	1100	90800	999999	0	0	1	2	-1	0	0	0	0	0	0	0	0	0	0	0	0	0		475	150	0	3992	0	0	6970	0	2500	0	500	1	30	0	貓咪世界最大級的驚人進化樣貌之古代勇者們！★點圖確認詳細吧!!
20200828	1100	20200831	1100	90800	999999	0	0	0	3	-1	0	0	0	0	0	0	0	0	0	0	0	0	0		-1	0	0	0	0	0	0	0	0	0	0	0	0	0		5	0	0	2	500	0	7000	0	2000	0	500	0	0	0	限時開放★高機率獲得各種貓眼石的活動限定特別轉蛋！
20200828	1100	20200831	1100	90800	999999	0	0	1	1	534	150	0	3992	0	0	7000	0	2500	0	500	1	0	0	新角色追加！滿滿開放感的夏日限定角色來GET吧！★11連轉超激確定活動中!!
20200831	1100	20200914	1100	90800	999999	0	0	1	1	535	150	0	0	0	0	7000	0	2500	0	500	0	0	0	【期間限定】新角色追加！『初音未來』合作轉蛋！★點圖確認詳細吧!!
20200831	1100	20200902	1100	90800	999999	0	0	1	2	-1	0	0	0	0	0	0	0	0	0	0	0	0	0		497	150	0	0	0	0	6970	0	2500	0	500	0	30	0	冥界神黑帝斯參戰！貓咪世界再加一偉大神！★點圖確認詳細吧!!
20200902	1100	20200904	1100	90800	999999	0	0	1	2	-1	0	0	0	0	0	0	0	0	0	0	0	0	0		448	150	0	0	0	0	6970	0	2500	0	500	0	30	0	來自宇宙盡頭的各種精靈們！還有新神秘角色！？★點圖可以看詳細內容喔！
20200904	1100	20200907	1100	90800	999999	0	0	1	1	520	150	0	0	0	0	6500	0	2600	0	900	0	0	0	超強戰力角色「災難少女凱斯莉」參戰！★超激稀有出現率只有現在上升中！
20200904	1100	20200914	1100	90800	999999	0	0	1	2	-1	0	0	0	0	0	0	0	0	0	0	0	0	0		535	150	0	0	0	0	7000	0	2500	0	500	0	0	0	【期間限定】新角色追加！『初音未來』合作轉蛋！★點圖確認詳細吧!!
20200907	1100	20200914	1100	90800	999999	0	0	1	1	535	150	0	0	0	0	7000	0	2500	0	500	0	0	0	【期間限定】新角色追加！『初音未來』合作轉蛋！★點圖確認詳細吧!!
20200907	1100	20200909	1100	90800	999999	0	0	1	2	-1	0	0	0	0	0	0	0	0	0	0	0	0	0		427	150	0	0	0	0	6970	0	2500	0	500	0	30	0	對上黑敵能力大爆發！有強大效果的戰國武將們！★點圖確認詳細吧！！
20200909	1100	20200911	1100	90800	999999	0	0	1	2	-1	0	0	0	0	0	0	0	0	0	0	0	0	0		517	150	0	0	0	0	6970	0	2500	0	500	0	30	0	新角色「角擊貓」參戰！充滿謎的噁心可愛生命體來啦！★點圖確認詳細吧!!
20200911	1100	20200914	1100	90800	999999	0	0	1	1	535	150	0	0	0	0	7000	0	2500	0	500	1	0	0	【期間限定】追加新角色！『初音未來』合作轉蛋！★11連轉超激確定活動中!!
20200911	1100	20200914	1100	90800	999999	0	0	1	2	-1	0	0	0	0	0	0	0	0	0	0	0	0	0		433	150	0	0	0	0	6970	0	2500	0	500	1	30	0	展現壓倒性的存在感，快點入手強力的龍皇吧!★點圖確認詳細吧!!
[end]
