[start]
20180109	1100	20300101	1100	50700	999999	0	0	0	1	0	0	0	0	10000	0	0	0	0	0	0	0	0	0	
20170101	0	20300101	0	80200	999999	0	0	2	3	0	30	0	0	0	0	7500	0	2000	0	500	0	0	0		0	30	0	0	0	0	7500	0	2000	0	500	0	0	0		0	30	0	0	0	0	7500	0	2000	0	500	0	0	0	
20170101	0	20300101	0	80200	999999	0	0	3	3	0	75	0	0	0	0	7500	0	2000	0	500	0	0	0		0	75	0	0	0	0	7500	0	2000	0	500	0	0	0		0	75	0	0	0	0	7500	0	2000	0	500	0	0	0	
20201009	1100	20300101	1100	90900	999999	0	0	1	4	-1	0	0	0	0	0	0	0	0	0	0	0	0	0		-1	0	0	0	0	0	0	0	0	0	0	0	0	0		-1	0	0	0	0	0	0	0	0	0	0	0	0	0		525	0	0	0	0	0	0	0	0	0	10000	0	0	0	必出超激稀有角色的白金轉蛋！快來獲得心儀的貓咪吧！
20201113	1100	20300101	1100	91000	999999	0	0	1	4	-1	0	0	0	0	0	0	0	0	0	0	0	0	0		-1	0	0	0	0	0	0	0	0	0	0	0	0	0		-1	0	0	0	0	0	0	0	0	0	0	0	0	0		543	0	0	0	0	0	0	0	0	0	10000	0	0	0	必出超激稀有角色的白金轉蛋！快來獲得心儀的貓咪吧！
20210212	000	20300101	1100	100200	999999	0	0	1	4	-1	0	0	0	0	0	0	0	0	0	0	0	0	0		-1	0	0	0	0	0	0	0	0	0	0	0	0	0		-1	0	0	0	0	0	0	0	0	0	0	0	0	0		556	0	0	0	0	0	0	0	0	0	10000	0	0	0	必出超激稀有角色的白金轉蛋！快來獲得心儀的貓咪吧！
20210503	1100	20300101	0	100400	999999	0	0	0	3	-1	0	0	0	0	0	0	0	0	0	0	0	0	0		-1	0	0	0	0	0	0	0	0	0	0	0	0	0		62	0	0	0	0	0	7400	0	2100	0	500	0	0	0	限時開放！收集小小貓咪的好機會！
20210416	1100	20300101	0	100400	999999	0	0	0	4	-1	0	0	0	0	0	0	0	0	0	0	0	0	0		-1	0	0	0	0	0	0	0	0	0	0	0	0	0		-1	0	0	0	0	0	0	0	0	0	0	0	0	0		63	0	300	0	0	0	5100	0	3500	0	1400	0	0	0	限時開放★能夠獲得喵力達與XP的特別轉蛋！
20210507	1100	20300101	1100	100400	999999	0	0	1	4	-1	0	0	0	0	0	0	0	0	0	0	0	0	0		-1	0	0	0	0	0	0	0	0	0	0	0	0	0		-1	0	0	0	0	0	0	0	0	0	0	0	0	0		577	0	0	0	0	0	0	0	0	0	10000	0	0	0	必出超激稀有角色的白金轉蛋！快來獲得心儀的貓咪吧！
20210625	1100	20210709	0	80200	999999	0	0	0	2	-1	0	0	0	0	0	7500	0	2000	0	500	0	0	0		5	0	0	2	500	0	7000	0	2000	0	500	0	0	0	限時開放★高機率獲得各種貓眼石的活動限定特別轉蛋！
20210705	1100	20210709	0	100600	999999	0	0	1	1	596	150	0	0	0	0	6970	0	2500	0	500	0	30	0	6週年紀念！帶著滿滿感謝的心推出的特別精選轉蛋！★點圖確認詳細吧!!	0
20210705	1100	20210707	1100	100600	999999	0	0	1	2	-1	0	0	0	0	0	7500	0	2000	0	500	0	0	0		475	150	0	0	0	0	6970	0	2500	0	500	0	30	0	貓咪世界最大級的驚人進化樣貌之古代勇者們！★點圖確認詳細吧!!
20210707	1100	20210709	0	100600	999999	0	0	1	2	-1	0	0	0	0	0	7500	0	2000	0	500	0	0	0		572	150	0	0	0	0	6970	0	2500	0	500	0	30	0	新角色「空中商店・探險家」參戰！貓咪軍團的超級兵器呀！★點圖可以確認詳細喔!!	0	0
20210709	000	20210723	1100	100600	999999	0	0	0	2	-1	0	0	0	0	0	0	0	0	0	0	0	0	0		3	0	300	0	400	0	2000	0	7000	0	600	0	0	0	限時開放★有機會入手貓薄荷的活動限定特別轉蛋！
20210709	000	20210712	1100	100600	999999	0	0	1	1	590	150	0	0	0	0	6500	0	2600	0	900	0	0	0	新角色「黑獸加迪」參戰！★超激稀有出現率超上升的「特級貓咪祭」進行中!!
20210712	1100	20210716	1100	100600	999999	0	0	1	2	-1	0	0	0	0	0	0	0	0	0	0	0	0	0		597	150	0	0	0	0	6970	0	2500	0	500	0	30	0	6週年紀念！帶著滿滿感謝的心推出的特別精選轉蛋！★點圖確認詳細吧!!
20210712	1100	20210714	1100	100600	999999	0	0	1	3	-1	0	0	0	0	0	0	0	0	0	0	0	0	0		-1	0	0	0	0	0	0	0	0	0	0	0	0	0		430	150	0	0	0	0	6970	0	2500	0	500	0	30	0	打倒阻礙的敵人！戰鬥力十足又可愛的電腦少女們！★點圖可看詳細內容！
20210714	1100	20210716	1100	100600	999999	0	0	1	3	-1	0	0	0	0	0	0	0	0	0	0	0	0	0		-1	0	0	0	0	0	0	0	0	0	0	0	0	0		585	150	0	0	0	0	6970	0	2500	0	500	0	30	0	「冒險家佳奈」新登場！異世界召喚來的愉快美少女們！★點圖可以確認詳細喔!!
20210716	1100	20210719	1100	100600	999999	0	0	1	2	-1	0	0	0	0	0	0	0	0	0	0	0	0	0		595	150	0	0	0	0	7000	0	2500	0	500	0	0	0	追加多數新角色的「6週年紀念特別版轉蛋」！★點圖確認詳細吧!!
20210716	1100	20210719	1100	100600	999999	0	0	1	3	-1	0	0	0	0	0	0	0	0	0	0	0	0	0		-1	0	0	0	0	0	0	0	0	0	0	0	0	0		427	150	0	0	0	0	6970	0	2500	0	500	0	30	0	對上黑敵能力大爆發！有強大效果的戰國武將們！★點圖確認詳細吧！！
20210719	1100	20210723	1100	100600	999999	0	0	1	2	-1	0	0	0	0	0	0	0	0	0	0	0	0	0		598	150	0	0	0	0	6970	0	2500	0	500	0	30	0	6週年紀念！帶著滿滿感謝的心推出的特別精選轉蛋！★點圖確認詳細吧!!
20210719	1100	20210721	1100	100600	999999	0	0	1	3	-1	0	0	0	0	0	0	0	0	0	0	0	0	0		-1	0	0	0	0	0	0	0	0	0	0	0	0	0		433	150	0	0	0	0	6970	0	2500	0	500	0	30	0	展現壓倒性的存在感，快點入手強力的龍皇吧!★點圖確認詳細吧!!
20210721	1100	20210723	1100	100600	999999	0	0	1	3	-1	0	0	0	0	0	0	0	0	0	0	0	0	0		-1	0	0	0	0	0	0	0	0	0	0	0	0	0		424	150	0	0	0	0	6970	0	2500	0	500	0	30	0	豐富多樣性的世界第一即戰力貓咪們！★點圖確認詳細吧!!
20210709	000	20300101	1100	100600	999999	0	0	1	4	-1	0	0	0	0	0	0	0	0	0	0	0	0	0		-1	0	0	0	0	0	0	0	0	0	0	0	0	0		-1	0	0	0	0	0	0	0	0	0	0	0	0	0		592	0	0	0	0	0	0	0	0	0	10000	0	0	0	必出超激稀有角色的白金轉蛋！快來獲得心儀的貓咪吧！
[end]
