[start]
20180109	1100	20300101	1100	50700	999999	0	0	0	1	0	0	0	0	10000	0	0	0	0	0	0	0	0	0	
20170101	0	20300101	0	80200	999999	0	0	2	3	0	30	0	0	0	0	7500	0	2000	0	500	0	0	0		0	30	0	0	0	0	7500	0	2000	0	500	0	0	0		0	30	0	0	0	0	7500	0	2000	0	500	0	0	0	
20170101	0	20300101	0	80200	999999	0	0	3	3	0	75	0	0	0	0	7500	0	2000	0	500	0	0	0		0	75	0	0	0	0	7500	0	2000	0	500	0	0	0		0	75	0	0	0	0	7500	0	2000	0	500	0	0	0	
20201009	1100	20300101	1100	90900	999999	0	0	1	4	-1	0	0	0	0	0	0	0	0	0	0	0	0	0		-1	0	0	0	0	0	0	0	0	0	0	0	0	0		-1	0	0	0	0	0	0	0	0	0	0	0	0	0		525	0	0	0	0	0	0	0	0	0	10000	0	0	0	必出超激稀有角色的白金轉蛋！快來獲得心儀的貓咪吧！
20201113	1100	20300101	1100	91000	999999	0	0	1	4	-1	0	0	0	0	0	0	0	0	0	0	0	0	0		-1	0	0	0	0	0	0	0	0	0	0	0	0	0		-1	0	0	0	0	0	0	0	0	0	0	0	0	0		543	0	0	0	0	0	0	0	0	0	10000	0	0	0	必出超激稀有角色的白金轉蛋！快來獲得心儀的貓咪吧！
20210212	000	20300101	1100	100200	999999	0	0	1	4	-1	0	0	0	0	0	0	0	0	0	0	0	0	0		-1	0	0	0	0	0	0	0	0	0	0	0	0	0		-1	0	0	0	0	0	0	0	0	0	0	0	0	0		556	0	0	0	0	0	0	0	0	0	10000	0	0	0	必出超激稀有角色的白金轉蛋！快來獲得心儀的貓咪吧！
20210301	1100	20210315	1100	100201	999999	0	0	1	1	516	150	0	0	0	0	7000	0	2500	0	500	0	0	0	新超激稀有角色新增5隻！使徒參戰的合作轉蛋2nd新登場！★點圖確認詳細吧!!
20210301	1100	20210315	1100	100201	999999	0	0	1	2	-1	0	0	0	0	0	0	0	0	0	0	0	0	0		570	150	0	0	0	0	7000	0	2500	0	500	0	0	0	福音戰士為主角的合作轉蛋復刻登場！★點圖確認詳細吧!!
20210305	1100	20210315	1100	100201	999999	0	0	1	2	-1	0	0	0	0	0	0	0	0	0	0	0	0	0		516	150	0	0	0	0	7000	0	2500	0	500	0	0	0	新超激稀有角色新增5隻！使徒參戰的合作轉蛋2nd新登場！★點圖確認詳細吧!!
20210305	1100	20210315	1100	100201	999999	0	0	1	3	-1	0	0	0	0	0	0	0	0	0	0	0	0	0		-1	0	0	0	0	0	0	0	0	0	0	0	0	0		570	150	0	0	0	0	7000	0	2500	0	500	0	0	0	福音戰士為主角的合作轉蛋復刻登場！★點圖確認詳細吧!!
20210308	1100	20210315	1100	100201	999999	0	0	1	1	516	150	0	0	0	0	7000	0	2500	0	500	0	0	0	新超激稀有角色新增5隻！使徒參戰的合作轉蛋2nd新登場！★點圖確認詳細吧!!
20210308	1100	20210315	1100	100201	999999	0	0	1	2	-1	0	0	0	0	0	0	0	0	0	0	0	0	0		570	150	0	0	0	0	7000	0	2500	0	500	0	0	0	福音戰士為主角的合作轉蛋復刻登場！★點圖確認詳細吧!!
20210310	1100	20210312	1100	100201	999999	0	0	1	3	-1	0	0	0	0	0	0	0	0	0	0	0	0	0		-1	0	0	0	0	0	0	0	0	0	0	0	0	0		427	150	0	0	0	0	6970	0	2500	0	500	0	30	0	對上黑敵能力大爆發！有強大效果的戰國武將們！★點圖確認詳細吧！！
20210312	1100	20210315	1100	100201	999999	0	0	1	1	516	150	0	0	0	0	7000	0	2500	0	500	1	0	0	新超激稀有角色新增5隻！使徒參戰的合作轉蛋2nd新登場！★點圖確認詳細吧!!
20210312	1100	20210315	1100	100201	999999	0	0	1	2	-1	0	0	0	0	0	0	0	0	0	0	0	0	0		570	150	0	0	0	0	7000	0	2500	0	500	1	0	0	福音戰士為主角的合作轉蛋復刻登場！★點圖確認詳細吧!!
20210312	1100	20210315	1100	100201	999999	0	0	1	3	-1	0	0	0	0	0	0	0	0	0	0	0	0	0		-1	0	0	0	0	0	0	0	0	0	0	0	0	0		424	150	0	0	0	0	6970	0	2500	0	500	1	30	0	豐富多樣性的世界第一即戰力貓咪們！★點圖確認詳細吧!!
20210316	1100	20210402	0	100300	999999	0	0	0	4	-1	0	0	0	0	0	0	0	0	0	0	0	0	0		-1	0	0	0	0	0	0	0	0	0	0	0	0	0		-1	0	0	0	0	0	0	0	0	0	0	0	0	0		60	0	300	0	0	0	5100	0	3500	0	1400	0	0	0	限時開放★能夠獲得喵力達與XP的特別轉蛋！★4月1日為止！
20210315	1100	20210329	1100	100300	999999	0	0	1	2	-1	0	0	0	0	0	0	0	0	0	0	0	0	0		584	150	0	0	0	0	7000	0	2500	0	500	0	0	0	限定角色12隻全部會登場的『初音未來』整年度合作最後轉蛋機會！★點圖確認詳細吧!!
20210315	1100	20210317	1100	100300	999999	0	0	1	3	-1	0	0	0	0	0	0	0	0	0	0	0	0	0		-1	0	0	0	0	0	0	0	0	0	0	0	0	0		517	150	0	0	0	0	6970	0	2500	0	500	0	30	0	無法說明充滿謎樣的噁心可愛生命體系列！★點圖確認詳細吧!!
20210317	1100	20210319	1100	100300	999999	0	0	1	3	-1	0	0	0	0	0	0	0	0	0	0	0	0	0		-1	0	0	0	0	0	0	0	0	0	0	0	0	0		497	150	0	0	0	0	6970	0	2500	0	500	0	30	0	貓咪世界的偉大神們，都齊聚在此啦！★點圖確認詳細吧!!
20210319	1100	20210322	1100	100300	999999	0	0	1	1	542	150	0	0	0	0	6500	0	2600	0	900	0	0	0	超激稀有角色齊聚一堂!!★超激稀有出現率大增的「特級貓咪祭」進行中!!
20210322	1100	20210324	1100	100300	999999	0	0	1	3	-1	0	0	0	0	0	0	0	0	0	0	0	0	0		-1	0	0	0	0	0	0	0	0	0	0	0	0	0		433	150	0	0	0	0	6970	0	2500	0	500	0	30	0	展現壓倒性的存在感，快點入手強力的龍皇吧!★點圖確認詳細吧!!
20210324	1100	20210326	1100	100300	999999	0	0	1	3	-1	0	0	0	0	0	0	0	0	0	0	0	0	0		-1	0	0	0	0	0	0	0	0	0	0	0	0	0		538	150	0	0	0	0	6970	0	2500	0	500	0	30	0	新角色「石精靈滾瓦」參戰！有個性又快樂的精靈！★點圖確認詳細吧!!
20210326	1100	20210329	1100	100300	999999	0	0	1	2	-1	0	0	0	0	0	0	0	0	0	0	0	0	0		584	150	0	0	0	0	7000	0	2500	0	500	1	0	0	限定角色12隻全部會登場的『初音未來』整年度合作最後轉蛋機會！★11連轉確定活動進行中!!
20210326	1100	20210329	1100	100300	999999	0	0	1	3	-1	0	0	0	0	0	0	0	0	0	0	0	0	0		-1	0	0	0	0	0	0	0	0	0	0	0	0	0		487	150	0	0	0	0	6970	0	2500	0	500	1	30	0	握有正義與黑暗之力，貓咪軍團的救世主來了！★點圖確認詳細吧!!
[end]
