[start]
20180109	1100	20300101	0	60700	999999	0	0	0	1	0	0	0	0	10000	0	0	0	0	0	0	0	0	0	
20160101	0	20300101	0	50700	999999	0	0	1	1	0	150	0	0	0	0	7500	0	2000	0	500	0	0	0	ここでしか手に入らないキャラクターが必ず出現！しかもレアキャラ以上確定!!
20180101	0	20300101	0	50700	999999	0	0	2	2	33	30	0	0	0	0	7500	0	2000	0	500	0	0	0		23	30	0	0	0	0	7500	0	2000	0	500	0	0	0	
20180101	0	20300101	0	50700	999999	0	0	3	2	33	75	0	0	0	0	7500	0	2000	0	500	0	0	0		23	75	0	0	0	0	7500	0	2000	0	500	0	0	0	
20180915	1100	20300101	0	70400	999999	0	0	1	4	-1	150	0	0	0	0	7500	0	2000	0	500	0	0	0		-1	150	0	0	0	0	7500	0	2000	0	500	0	0	0		-1	150	0	0	0	0	7500	0	2000	0	500	0	0	0		320	0	0	0	0	0	0	0	0	0	10000	0	0	0	超激レアのキャラクターが必ず１体手に入る「プラチナガチャ」！
20190716	1100	20190801	2359	80700	999999	0	0	0	4	-1	150	0	0	0	0	7500	0	2000	0	500	0	0	0		-1	150	0	0	0	0	7500	0	2000	0	500	0	0	0		-1	150	0	0	0	0	7500	0	2000	0	500	0	0	0		28	0	300	0	0	0	5100	0	3500	0	1400	0	0	0	【期間限定】ネコビタンとXPが手に入る特別仕様ガチャ！★8月1日まで！
20190718	1100	20190801	1100	80705	999999	0	0	1	1	391	150	0	0	0	0	7000	0	2500	0	500	0	0	0	「エヴァンゲリオン」キャラが登場するコラボガチャ！★詳細はバナーをタップ!!
20190727	1100	20190801	1100	80705	999999	0	0	1	1	391	150	0	0	0	0	7000	0	2500	0	500	1	0	0	【終了間近】「エヴァンゲリオン」コラボガチャ！★11連で超激レア確定!!
20190729	1100	20190801	1100	80705	999999	0	0	1	2	-1	150	0	0	0	0	7500	0	2000	0	500	0	0	0		333	150	0	0	0	0	6970	0	2500	0	500	1	30	0	パワフルでキュートな電脳少女達！シークレット新参戦！？★詳細はバナーをタップ!!
20190801	1100	20190804	1100	80705	999999	0	0	1	1	360	150	0	0	0	0	6500	0	2600	0	900	0	0	0	強力な限定キャラ「幼傑ダルターニャ」も参戦！★超激レア出現率が今だけ超アップ!!
20190804	1100	20190805	1100	80705	999999	0	0	1	1	336	150	0	0	0	0	6970	0	2500	0	500	0	30	0	圧倒的な存在感を放つドラゴン達！シークレット新参戦！？★詳細はバナーをタップ!!
20190805	1100	20190812	1100	80800	999999	0	0	0	2	-1	150	0	0	0	0	7500	0	2000	0	500	0	0	0		3	0	300	0	400	0	2000	0	7000	0	600	0	0	0	高確率でマタタビが手に入るイベント限定特別ガチャ！　8月12日11時まで！
20190812	1100	20190819	1500	80800	999999	0	0	0	2	-1	150	0	0	0	0	7500	0	2000	0	500	0	0	0		5	0	0	2	500	0	7000	0	2000	0	500	0	0	0	高確率でキャッツアイが手に入るイベント限定特別ガチャ！　8月19日15時まで！
20190805	1100	20190819	2359	80800	999999	0	0	0	3	-1	150	0	0	0	0	7500	0	2000	0	500	0	0	0		-1	150	0	0	0	0	7500	0	2000	0	500	0	0	0		30	0	0	0	0	0	7400	0	2100	0	500	0	0	0	【期間限定】ちびネコ達が手に入る特別仕様のイベントガチャ！★8月19日まで！
20190805	1100	20190819	1500	80800	999999	0	0	1	2	-1	150	0	0	0	0	7500	0	2000	0	500	0	0	0		395	150	0	3688	0	0	7000	0	2500	0	500	0	0	0	新キャラ追加！開放的な夏限定のキャラクターをGET！★詳細はバナーをタップ!!
20190805	1100	20190807	1100	80800	999999	0	0	1	1	380	150	0	3688	0	0	6970	0	2500	0	500	0	30	0	個性的で愉快な精霊を仲間にしよう！シークレット新参戦！？★詳細はバナーをタップ!!
20190807	1100	20190809	1100	80800	999999	0	0	1	1	392	150	0	3688	0	0	6970	0	2500	0	500	0	30	0	にゃんこワールドの偉大なる神々！シークレット新参戦！？★詳細はバナーをタップ!!
20190809	1100	20190811	1100	80800	999999	0	0	1	1	369	150	0	3688	0	0	6970	0	2500	0	500	0	30	0	世界一即戦力になるにゃんこ達！シークレット新参戦！？★詳細はバナーをタップ!!
20190811	1100	20190812	1100	80800	999999	0	0	1	1	384	150	0	3688	0	0	6970	0	2500	0	500	0	30	0	正義と闇、２つの力を持つ救世主！シークレット新参戦！？★詳細はバナーをタップ!!
20190812	1100	20190815	1100	80800	999999	0	0	1	1	361	150	0	3688	0	0	6500	0	2600	0	900	0	0	0	限定キャラ「影傑ダークダルターニャ」も参戦！★超激レア出現率が今だけ超アップ!!
[end]
