[start]
20180109	1100	20300101	0	60700	999999	0	0	0	1	0	0	0	0	10000	0	0	0	0	0	0	0	0	0	
20180101	0	20300101	0	80200	999999	0	0	2	3	33	30	0	0	0	0	7500	0	2000	0	500	0	0	0		23	30	0	0	0	0	7500	0	2000	0	500	0	0	0		0	30	0	0	0	0	7500	0	2000	0	500	0	0	0	
20180101	0	20300101	0	80200	999999	0	0	3	3	33	75	0	0	0	0	7500	0	2000	0	500	0	0	0		23	75	0	0	0	0	7500	0	2000	0	500	0	0	0		0	75	0	0	0	0	7500	0	2000	0	500	0	0	0	
20210426	1100	20300101	000	100400	999999	0	0	0	3	-1	0	0	0	0	0	0	0	0	0	0	0	0	0		-1	0	0	0	0	0	0	0	0	0	0	0	0	0		62	0	0	0	0	0	7400	0	2100	0	500	0	0	0	ちびネコ達が手に入る特別仕様のイベントガチャ！
20210316	1100	20300101	000	100400	999999	0	0	0	4	-1	0	0	0	0	0	0	0	0	0	0	0	0	0		-1	0	0	0	0	0	0	0	0	0	0	0	0	0		-1	0	0	0	0	0	0	0	0	0	0	0	0	0		63	0	300	0	0	0	5100	0	3500	0	1400	0	0	0	ネコビタンとXPが手に入る特別仕様ガチャ！
20211208	000	20300101	000	110100	999999	0	0	0	1	64	0	2300	0	10000	0	0	0	0	0	0	0	0	0	
20220501	1100	20300101	000	110500	999999	0	0	1	4	-1	0	0	0	0	0	0	0	0	0	0	0	0	0		-1	0	0	0	0	0	0	0	0	0	0	0	0	0		-1	0	0	0	0	0	0	0	0	0	0	0	0	0		730	0	0	0	0	0	0	0	0	0	9500	0	500	0	超激レア以上のキャラクターが必ず１体手に入る「レジェンドガチャ」！
20220501	1100	20300101	000	110500	999999	0	0	1	5	-1	0	0	0	0	0	0	0	0	0	0	0	0	0		-1	0	0	0	0	0	0	0	0	0	0	0	0	0		-1	0	0	0	0	0	0	0	0	0	0	0	0	0		-1	0	0	0	0	0	0	0	0	0	0	0	0	0		729	0	0	0	0	0	0	0	0	0	10000	0	0	0	超激レアのキャラクターが必ず１体手に入る「プラチナガチャ」！
20220604	1100	20300101	000	110600	999999	0	0	1	4	-1	0	0	0	0	0	0	0	0	0	0	0	0	0		-1	0	0	0	0	0	0	0	0	0	0	0	0	0		-1	0	0	0	0	0	0	0	0	0	0	0	0	0		736	0	0	0	0	0	0	0	0	0	9500	0	500	0	超激レア以上のキャラクターが必ず１体手に入る「レジェンドガチャ」！
20220604	1100	20300101	000	110600	999999	0	0	1	5	-1	0	0	0	0	0	0	0	0	0	0	0	0	0		-1	0	0	0	0	0	0	0	0	0	0	0	0	0		-1	0	0	0	0	0	0	0	0	0	0	0	0	0		-1	0	0	0	0	0	0	0	0	0	0	0	0	0		735	0	0	0	0	0	0	0	0	0	10000	0	0	0	超激レアのキャラクターが必ず１体手に入る「プラチナガチャ」！
20220708	1100	20300101	000	110700	999999	0	0	1	4	-1	0	0	0	0	0	0	0	0	0	0	0	0	0		-1	0	0	0	0	0	0	0	0	0	0	0	0	0		-1	0	0	0	0	0	0	0	0	0	0	0	0	0		746	0	0	0	0	0	0	0	0	0	9500	0	500	0	超激レア以上のキャラクターが必ず１体手に入る「レジェンドガチャ」！
20220708	1100	20300101	000	110700	999999	0	0	1	5	-1	0	0	0	0	0	0	0	0	0	0	0	0	0		-1	0	0	0	0	0	0	0	0	0	0	0	0	0		-1	0	0	0	0	0	0	0	0	0	0	0	0	0		-1	0	0	0	0	0	0	0	0	0	0	0	0	0		745	0	0	0	0	0	0	0	0	0	10000	0	0	0	超激レアのキャラクターが必ず１体手に入る「プラチナガチャ」！
20220826	1100	20300101	000	110800	999999	0	0	1	4	-1	0	0	0	0	0	0	0	0	0	0	0	0	0		-1	0	0	0	0	0	0	0	0	0	0	0	0	0		-1	0	0	0	0	0	0	0	0	0	0	0	0	0		756	0	0	0	0	0	0	0	0	0	9500	0	500	0	超激レア以上のキャラクターが必ず１体手に入る「レジェンドガチャ」！
20220826	1100	20300101	000	110800	999999	0	0	1	5	-1	0	0	0	0	0	0	0	0	0	0	0	0	0		-1	0	0	0	0	0	0	0	0	0	0	0	0	0		-1	0	0	0	0	0	0	0	0	0	0	0	0	0		-1	0	0	0	0	0	0	0	0	0	0	0	0	0		755	0	0	0	0	0	0	0	0	0	10000	0	0	0	超激レアのキャラクターが必ず１体手に入る「プラチナガチャ」！
20221115	1100	20221227	2359	111000	999999	0	0	4	1	21	0	0	0	1000	0	5000	0	3000	0	1000	1	0	0	【10周年メモリアル】伝説のフリーパスで回せる限定ガチャ！★12月27日まで	このガチャをあと	回ガチャれば限定キャラクターが必ず出現！
20221115	1100	20221129	1100	111000	999999	0	0	0	2	-1	0	0	0	0	0	0	0	0	0	0	0	0	0		3	0	300	0	400	0	2000	0	7000	0	600	0	0	0	高確率でマタタビが手に入るイベント限定特別ガチャ！
20221123	1100	20221126	1100	111000	999999	0	0	1	1	770	150	0	0	0	0	6970	0	2500	0	500	0	30	0	10周年記念！感謝の気持ちを込めた特別なガチャ！★詳細はバナーをタップ!!
20221123	1100	20221126	1100	111000	999999	0	0	1	3	-1	0	0	0	0	0	0	0	0	0	0	0	0	0		-1	0	0	0	0	0	0	0	0	0	0	0	0	0		718	150	0	16384	0	0	6970	0	2500	0	500	0	30	0	超生命体特効を持つ新キャラクター「氷の精霊フリズ」参戦！★詳細はバナーをタップ!!
20221126	1100	20221129	1100	111000	999999	0	0	1	1	772	150	0	4	0	0	7000	0	2500	0	500	0	0	0	新登場！超生命体に強いキャラが揃う特別なガチャ！★おまけアップイベント開催中!!
20221126	1100	20300101	000	111000	999999	0	0	1	4	-1	0	0	0	0	0	0	0	0	0	0	0	0	0		-1	0	0	0	0	0	0	0	0	0	0	0	0	0		-1	0	0	0	0	0	0	0	0	0	0	0	0	0		775	0	0	0	0	0	0	0	0	0	9500	0	500	0	超激レア以上のキャラクターが必ず１体手に入る「レジェンドガチャ」！
20221126	1100	20300101	000	111000	999999	0	0	1	5	-1	0	0	0	0	0	0	0	0	0	0	0	0	0		-1	0	0	0	0	0	0	0	0	0	0	0	0	0		-1	0	0	0	0	0	0	0	0	0	0	0	0	0		-1	0	0	0	0	0	0	0	0	0	0	0	0	0		774	0	0	0	0	0	0	0	0	0	10000	0	0	0	超激レアのキャラクターが必ず１体手に入る「プラチナガチャ」！
[end]
